[
  {
    "id": 605104,
    "muutja": "dev_pms_obsidian",
    "muutmisAeg": "2020-07-10T02:00:06.065+0300",
    "algusAeg": "2016-06-15T15:41:56.000+0300",
    "loppAeg": null,
    "alusdokument": null,
    "muuAlus": "Rahvastikuregistri kontrolli põhjal põhiandmete uuendamine.",
    "klrId": 176785,
    "onJuriidilineIsik": false,
    "ettevotlusvormKlf": null,
    "eesnimi": "MADISON",
    "perekonnanimi": "RANDOLPH",
    "synniaegKp": "1973-08-22",
    "isikukood": "47308221754",
    "isikukoodRiikKlf": "EST",
    "suguKlf": "NAINE",
    "juriidilineNimi": null,
    "registrikood": null,
    "registrikoodRiikKlf": "EST",
    "majandusaastaAlgusKp": null,
    "ariregisterStaatus": null,
    "ariregisterStaatusAeg": null,
    "staatusKlf": "AKTIIVNE",
    "staatusAeg": "2016-06-15T15:41:56.000+0300",
    "onLubatudRegisterAadressKasutamine": null,
    "lisaja": "live_pms_khm",
    "andmeteKontrollimiseAeg": null,
    "elektroonilineSuhtlus": false
  }
]
